{
  "description" : null,
  "draft" : false,
  "name" : "TRAVEL_ADVISOR_DB",
  "packageName" : "com.travel_advisor.travel_advisor_db",
  "tables" : [ {
    "catalog" : "TRAVEL_ADVISOR_DB",
    "columns" : [ {
      "columnValue" : {
        "type" : "user-defined",
        "insertable" : true,
        "updatable" : true,
        "defaultValue" : null
      },
      "fieldName" : "empId",
      "foreignKey" : false,
      "generatorType" : "identity",
      "generatorValue" : null,
      "javaType" : "integer",
      "length" : 255,
      "name" : "EMP_ID",
      "nullable" : false,
      "oldName" : "EMP_ID",
      "partOfAnyRelation" : true,
      "partOfForeignKey" : false,
      "partOfPrimaryKey" : true,
      "partOfUniqueKey" : true,
      "precision" : 10,
      "primaryKey" : true,
      "scale" : 0,
      "sqlType" : "number",
      "unique" : true
    }, {
      "columnValue" : {
        "type" : "user-defined",
        "insertable" : true,
        "updatable" : true,
        "defaultValue" : null
      },
      "fieldName" : "password",
      "foreignKey" : false,
      "generatorType" : "assigned",
      "generatorValue" : null,
      "javaType" : "string",
      "length" : 255,
      "name" : "PASSWORD",
      "nullable" : true,
      "oldName" : "PASSWORD",
      "partOfAnyRelation" : false,
      "partOfForeignKey" : false,
      "partOfPrimaryKey" : false,
      "partOfUniqueKey" : false,
      "precision" : 19,
      "primaryKey" : false,
      "scale" : 0,
      "sqlType" : "string",
      "unique" : false
    }, {
      "columnValue" : {
        "type" : "user-defined",
        "insertable" : true,
        "updatable" : true,
        "defaultValue" : null
      },
      "fieldName" : "fullName",
      "foreignKey" : false,
      "generatorType" : "assigned",
      "generatorValue" : null,
      "javaType" : "string",
      "length" : 255,
      "name" : "FULL_NAME",
      "nullable" : true,
      "oldName" : "FULL_NAME",
      "partOfAnyRelation" : false,
      "partOfForeignKey" : false,
      "partOfPrimaryKey" : false,
      "partOfUniqueKey" : false,
      "precision" : 19,
      "primaryKey" : false,
      "scale" : 0,
      "sqlType" : "string",
      "unique" : false
    }, {
      "columnValue" : {
        "type" : "user-defined",
        "insertable" : true,
        "updatable" : true,
        "defaultValue" : null
      },
      "fieldName" : "managerId",
      "foreignKey" : true,
      "generatorType" : "assigned",
      "generatorValue" : null,
      "javaType" : "integer",
      "length" : 255,
      "name" : "MANAGER_ID",
      "nullable" : true,
      "oldName" : "MANAGER_ID",
      "partOfAnyRelation" : true,
      "partOfForeignKey" : true,
      "partOfPrimaryKey" : false,
      "partOfUniqueKey" : false,
      "precision" : 10,
      "primaryKey" : false,
      "scale" : 0,
      "sqlType" : "number",
      "unique" : false
    }, {
      "columnValue" : {
        "type" : "user-defined",
        "insertable" : true,
        "updatable" : true,
        "defaultValue" : null
      },
      "fieldName" : "picUrl",
      "foreignKey" : false,
      "generatorType" : "assigned",
      "generatorValue" : null,
      "javaType" : "string",
      "length" : 255,
      "name" : "PIC_URL",
      "nullable" : true,
      "oldName" : "PIC_URL",
      "partOfAnyRelation" : false,
      "partOfForeignKey" : false,
      "partOfPrimaryKey" : false,
      "partOfUniqueKey" : false,
      "precision" : 19,
      "primaryKey" : false,
      "scale" : 0,
      "sqlType" : "string",
      "unique" : false
    }, {
      "columnValue" : {
        "type" : "user-defined",
        "insertable" : true,
        "updatable" : true,
        "defaultValue" : null
      },
      "fieldName" : "username",
      "foreignKey" : false,
      "generatorType" : "assigned",
      "generatorValue" : null,
      "javaType" : "string",
      "length" : 255,
      "name" : "USERNAME",
      "nullable" : true,
      "oldName" : "USERNAME",
      "partOfAnyRelation" : false,
      "partOfForeignKey" : false,
      "partOfPrimaryKey" : false,
      "partOfUniqueKey" : false,
      "precision" : 19,
      "primaryKey" : false,
      "scale" : 0,
      "sqlType" : "string",
      "unique" : false
    } ],
    "constraints" : [ ],
    "entityName" : "Employee",
    "fullyQualifiedName" : "com.travel_advisor.travel_advisor_db.Employee",
    "name" : "EMPLOYEE",
    "oldName" : "EMPLOYEE",
    "primaryKey" : {
      "columns" : [ "EMP_ID" ],
      "composite" : false,
      "generator" : {
        "generatorType" : "identity",
        "generatorValue" : null
      },
      "name" : "PRIMARY",
      "virtual" : false
    },
    "relations" : [ {
      "cardinality" : "ManyToOne",
      "columnsUniqueKey" : false,
      "composite" : false,
      "fieldName" : "employeeByManagerId",
      "mappings" : [ {
        "sourceColumn" : "MANAGER_ID",
        "targetColumn" : "EMP_ID"
      } ],
      "name" : "FK_EMPLOYEE_TO_EMPLOYEE_bGqsw",
      "primary" : true,
      "selfRelation" : true,
      "sourceTable" : "EMPLOYEE",
      "targetColumnsUniqueKey" : false,
      "targetTable" : "EMPLOYEE",
      "virtual" : false
    }, {
      "cardinality" : "OneToMany",
      "columnsUniqueKey" : false,
      "composite" : false,
      "fieldName" : "employeesForManagerId",
      "mappings" : [ {
        "sourceColumn" : "EMP_ID",
        "targetColumn" : "MANAGER_ID"
      } ],
      "name" : "FK_EMPLOYEE_TO_EMPLOYEE_bGqsw",
      "primary" : false,
      "selfRelation" : true,
      "sourceTable" : "EMPLOYEE",
      "targetColumnsUniqueKey" : false,
      "targetTable" : "EMPLOYEE",
      "virtual" : false
    }, {
      "cardinality" : "OneToMany",
      "columnsUniqueKey" : false,
      "composite" : false,
      "fieldName" : "requestses",
      "mappings" : [ {
        "sourceColumn" : "EMP_ID",
        "targetColumn" : "EMP_ID"
      } ],
      "name" : "FK_REQUEST_TO_EMPLOYEE_EJKb4R",
      "primary" : false,
      "selfRelation" : false,
      "sourceTable" : "EMPLOYEE",
      "targetColumnsUniqueKey" : false,
      "targetTable" : "REQUESTS",
      "virtual" : false
    } ],
    "schema" : null,
    "type" : "TABLE"
  }, {
    "catalog" : "TRAVEL_ADVISOR_DB",
    "columns" : [ {
      "columnValue" : {
        "type" : "user-defined",
        "insertable" : true,
        "updatable" : true,
        "defaultValue" : null
      },
      "fieldName" : "requestId",
      "foreignKey" : false,
      "generatorType" : "identity",
      "generatorValue" : null,
      "javaType" : "integer",
      "length" : 255,
      "name" : "REQUEST_ID",
      "nullable" : false,
      "oldName" : "REQUEST_ID",
      "partOfAnyRelation" : false,
      "partOfForeignKey" : false,
      "partOfPrimaryKey" : true,
      "partOfUniqueKey" : true,
      "precision" : 10,
      "primaryKey" : true,
      "scale" : 0,
      "sqlType" : "number",
      "unique" : true
    }, {
      "columnValue" : {
        "type" : "user-defined",
        "insertable" : true,
        "updatable" : true,
        "defaultValue" : null
      },
      "fieldName" : "empId",
      "foreignKey" : true,
      "generatorType" : "assigned",
      "generatorValue" : null,
      "javaType" : "integer",
      "length" : 255,
      "name" : "EMP_ID",
      "nullable" : true,
      "oldName" : "EMP_ID",
      "partOfAnyRelation" : true,
      "partOfForeignKey" : true,
      "partOfPrimaryKey" : false,
      "partOfUniqueKey" : false,
      "precision" : 10,
      "primaryKey" : false,
      "scale" : 0,
      "sqlType" : "number",
      "unique" : false
    }, {
      "columnValue" : {
        "type" : "user-defined",
        "insertable" : true,
        "updatable" : true,
        "defaultValue" : null
      },
      "fieldName" : "from",
      "foreignKey" : true,
      "generatorType" : "assigned",
      "generatorValue" : null,
      "javaType" : "string",
      "length" : 25,
      "name" : "FROM",
      "nullable" : true,
      "oldName" : "FROM",
      "partOfAnyRelation" : true,
      "partOfForeignKey" : true,
      "partOfPrimaryKey" : false,
      "partOfUniqueKey" : false,
      "precision" : 19,
      "primaryKey" : false,
      "scale" : 0,
      "sqlType" : "string",
      "unique" : false
    }, {
      "columnValue" : {
        "type" : "user-defined",
        "insertable" : true,
        "updatable" : true,
        "defaultValue" : null
      },
      "fieldName" : "to",
      "foreignKey" : true,
      "generatorType" : "assigned",
      "generatorValue" : null,
      "javaType" : "string",
      "length" : 25,
      "name" : "TO",
      "nullable" : true,
      "oldName" : "TO",
      "partOfAnyRelation" : true,
      "partOfForeignKey" : true,
      "partOfPrimaryKey" : false,
      "partOfUniqueKey" : false,
      "precision" : 19,
      "primaryKey" : false,
      "scale" : 0,
      "sqlType" : "string",
      "unique" : false
    }, {
      "columnValue" : {
        "type" : "user-defined",
        "insertable" : true,
        "updatable" : true,
        "defaultValue" : null
      },
      "fieldName" : "travelType",
      "foreignKey" : false,
      "generatorType" : "assigned",
      "generatorValue" : null,
      "javaType" : "string",
      "length" : 255,
      "name" : "TRAVEL_TYPE",
      "nullable" : true,
      "oldName" : "TRAVEL_TYPE",
      "partOfAnyRelation" : false,
      "partOfForeignKey" : false,
      "partOfPrimaryKey" : false,
      "partOfUniqueKey" : false,
      "precision" : 19,
      "primaryKey" : false,
      "scale" : 0,
      "sqlType" : "string",
      "unique" : false
    }, {
      "columnValue" : {
        "type" : "user-defined",
        "insertable" : true,
        "updatable" : true,
        "defaultValue" : null
      },
      "fieldName" : "class_",
      "foreignKey" : false,
      "generatorType" : "assigned",
      "generatorValue" : null,
      "javaType" : "string",
      "length" : 255,
      "name" : "CLASS",
      "nullable" : true,
      "oldName" : "CLASS",
      "partOfAnyRelation" : false,
      "partOfForeignKey" : false,
      "partOfPrimaryKey" : false,
      "partOfUniqueKey" : false,
      "precision" : 19,
      "primaryKey" : false,
      "scale" : 0,
      "sqlType" : "string",
      "unique" : false
    }, {
      "columnValue" : {
        "type" : "user-defined",
        "insertable" : true,
        "updatable" : true,
        "defaultValue" : null
      },
      "fieldName" : "stay",
      "foreignKey" : false,
      "generatorType" : "assigned",
      "generatorValue" : null,
      "javaType" : "string",
      "length" : 255,
      "name" : "STAY",
      "nullable" : true,
      "oldName" : "STAY",
      "partOfAnyRelation" : false,
      "partOfForeignKey" : false,
      "partOfPrimaryKey" : false,
      "partOfUniqueKey" : false,
      "precision" : 19,
      "primaryKey" : false,
      "scale" : 0,
      "sqlType" : "string",
      "unique" : false
    }, {
      "columnValue" : {
        "type" : "user-defined",
        "insertable" : true,
        "updatable" : true,
        "defaultValue" : null
      },
      "fieldName" : "status",
      "foreignKey" : false,
      "generatorType" : "assigned",
      "generatorValue" : null,
      "javaType" : "string",
      "length" : 255,
      "name" : "STATUS",
      "nullable" : true,
      "oldName" : "STATUS",
      "partOfAnyRelation" : false,
      "partOfForeignKey" : false,
      "partOfPrimaryKey" : false,
      "partOfUniqueKey" : false,
      "precision" : 19,
      "primaryKey" : false,
      "scale" : 0,
      "sqlType" : "string",
      "unique" : false
    }, {
      "columnValue" : {
        "type" : "user-defined",
        "insertable" : true,
        "updatable" : true,
        "defaultValue" : null
      },
      "fieldName" : "deptDate",
      "foreignKey" : false,
      "generatorType" : "assigned",
      "generatorValue" : null,
      "javaType" : "date",
      "length" : 10,
      "name" : "DEPT_DATE",
      "nullable" : true,
      "oldName" : "DEPT_DATE",
      "partOfAnyRelation" : false,
      "partOfForeignKey" : false,
      "partOfPrimaryKey" : false,
      "partOfUniqueKey" : false,
      "precision" : 19,
      "primaryKey" : false,
      "scale" : 0,
      "sqlType" : "date",
      "unique" : false
    }, {
      "columnValue" : {
        "type" : "user-defined",
        "insertable" : true,
        "updatable" : true,
        "defaultValue" : null
      },
      "fieldName" : "returnDate",
      "foreignKey" : false,
      "generatorType" : "assigned",
      "generatorValue" : null,
      "javaType" : "date",
      "length" : 10,
      "name" : "RETURN_DATE",
      "nullable" : true,
      "oldName" : "RETURN_DATE",
      "partOfAnyRelation" : false,
      "partOfForeignKey" : false,
      "partOfPrimaryKey" : false,
      "partOfUniqueKey" : false,
      "precision" : 19,
      "primaryKey" : false,
      "scale" : 0,
      "sqlType" : "date",
      "unique" : false
    }, {
      "columnValue" : {
        "type" : "user-defined",
        "insertable" : true,
        "updatable" : true,
        "defaultValue" : null
      },
      "fieldName" : "visaType",
      "foreignKey" : false,
      "generatorType" : "assigned",
      "generatorValue" : null,
      "javaType" : "string",
      "length" : 255,
      "name" : "VISA_TYPE",
      "nullable" : true,
      "oldName" : "VISA_TYPE",
      "partOfAnyRelation" : false,
      "partOfForeignKey" : false,
      "partOfPrimaryKey" : false,
      "partOfUniqueKey" : false,
      "precision" : 19,
      "primaryKey" : false,
      "scale" : 0,
      "sqlType" : "string",
      "unique" : false
    }, {
      "columnValue" : {
        "type" : "user-defined",
        "insertable" : true,
        "updatable" : true,
        "defaultValue" : ""
      },
      "fieldName" : "description",
      "foreignKey" : false,
      "generatorType" : "assigned",
      "generatorValue" : null,
      "javaType" : "string",
      "length" : 25,
      "name" : "DESCRIPTION",
      "nullable" : true,
      "oldName" : "DESCRIPTION",
      "partOfAnyRelation" : false,
      "partOfForeignKey" : false,
      "partOfPrimaryKey" : false,
      "partOfUniqueKey" : false,
      "precision" : 19,
      "primaryKey" : false,
      "scale" : 0,
      "sqlType" : "string",
      "unique" : false
    }, {
      "columnValue" : {
        "type" : "server-defined",
        "insertable" : true,
        "updatable" : true,
        "variableType" : "DATE"
      },
      "fieldName" : "createdDate",
      "foreignKey" : false,
      "generatorType" : "assigned",
      "generatorValue" : null,
      "javaType" : "date",
      "length" : 10,
      "name" : "CREATED_DATE",
      "nullable" : true,
      "oldName" : "CREATED_DATE",
      "partOfAnyRelation" : false,
      "partOfForeignKey" : false,
      "partOfPrimaryKey" : false,
      "partOfUniqueKey" : false,
      "precision" : 19,
      "primaryKey" : false,
      "scale" : 0,
      "sqlType" : "date",
      "unique" : false
    }, {
      "columnValue" : {
        "type" : "user-defined",
        "insertable" : true,
        "updatable" : true,
        "defaultValue" : ""
      },
      "fieldName" : "tripName",
      "foreignKey" : false,
      "generatorType" : "assigned",
      "generatorValue" : null,
      "javaType" : "string",
      "length" : 255,
      "name" : "TRIP_NAME",
      "nullable" : true,
      "oldName" : "TRIP_NAME",
      "partOfAnyRelation" : false,
      "partOfForeignKey" : false,
      "partOfPrimaryKey" : false,
      "partOfUniqueKey" : false,
      "precision" : 19,
      "primaryKey" : false,
      "scale" : 0,
      "sqlType" : "string",
      "unique" : false
    } ],
    "constraints" : [ ],
    "entityName" : "Requests",
    "fullyQualifiedName" : "com.travel_advisor.travel_advisor_db.Requests",
    "name" : "REQUESTS",
    "oldName" : "REQUESTS",
    "primaryKey" : {
      "columns" : [ "REQUEST_ID" ],
      "composite" : false,
      "generator" : {
        "generatorType" : "identity",
        "generatorValue" : null
      },
      "name" : "PRIMARY",
      "virtual" : false
    },
    "relations" : [ {
      "cardinality" : "ManyToOne",
      "columnsUniqueKey" : false,
      "composite" : false,
      "fieldName" : "destinationsByTo",
      "mappings" : [ {
        "sourceColumn" : "TO",
        "targetColumn" : "AIRPORT_CODE"
      } ],
      "name" : "FK_REQUEST_TO_DESTINATIOvRFwU",
      "primary" : true,
      "selfRelation" : false,
      "sourceTable" : "REQUESTS",
      "targetColumnsUniqueKey" : false,
      "targetTable" : "DESTINATIONS",
      "virtual" : false
    }, {
      "cardinality" : "ManyToOne",
      "columnsUniqueKey" : false,
      "composite" : false,
      "fieldName" : "destinationsByFrom",
      "mappings" : [ {
        "sourceColumn" : "FROM",
        "targetColumn" : "AIRPORT_CODE"
      } ],
      "name" : "FK_REQUEST_TO_DESTINATIOGSlKy",
      "primary" : true,
      "selfRelation" : false,
      "sourceTable" : "REQUESTS",
      "targetColumnsUniqueKey" : false,
      "targetTable" : "DESTINATIONS",
      "virtual" : false
    }, {
      "cardinality" : "ManyToOne",
      "columnsUniqueKey" : false,
      "composite" : false,
      "fieldName" : "employee",
      "mappings" : [ {
        "sourceColumn" : "EMP_ID",
        "targetColumn" : "EMP_ID"
      } ],
      "name" : "FK_REQUEST_TO_EMPLOYEE_EJKb4R",
      "primary" : true,
      "selfRelation" : false,
      "sourceTable" : "REQUESTS",
      "targetColumnsUniqueKey" : false,
      "targetTable" : "EMPLOYEE",
      "virtual" : false
    } ],
    "schema" : null,
    "type" : "TABLE"
  }, {
    "catalog" : "TRAVEL_ADVISOR_DB",
    "columns" : [ {
      "columnValue" : {
        "type" : "user-defined",
        "insertable" : true,
        "updatable" : true,
        "defaultValue" : null
      },
      "fieldName" : "airportCode",
      "foreignKey" : false,
      "generatorType" : "assigned",
      "generatorValue" : null,
      "javaType" : "string",
      "length" : 25,
      "name" : "AIRPORT_CODE",
      "nullable" : false,
      "oldName" : "AIRPORT_CODE",
      "partOfAnyRelation" : true,
      "partOfForeignKey" : false,
      "partOfPrimaryKey" : true,
      "partOfUniqueKey" : true,
      "precision" : 19,
      "primaryKey" : true,
      "scale" : 0,
      "sqlType" : "string",
      "unique" : true
    }, {
      "columnValue" : {
        "type" : "user-defined",
        "insertable" : true,
        "updatable" : true,
        "defaultValue" : null
      },
      "fieldName" : "airportName",
      "foreignKey" : false,
      "generatorType" : "assigned",
      "generatorValue" : null,
      "javaType" : "string",
      "length" : 255,
      "name" : "AIRPORT_NAME",
      "nullable" : true,
      "oldName" : "AIRPORT_NAME",
      "partOfAnyRelation" : false,
      "partOfForeignKey" : false,
      "partOfPrimaryKey" : false,
      "partOfUniqueKey" : false,
      "precision" : 19,
      "primaryKey" : false,
      "scale" : 0,
      "sqlType" : "string",
      "unique" : false
    }, {
      "columnValue" : {
        "type" : "user-defined",
        "insertable" : true,
        "updatable" : true,
        "defaultValue" : null
      },
      "fieldName" : "country",
      "foreignKey" : false,
      "generatorType" : "assigned",
      "generatorValue" : null,
      "javaType" : "string",
      "length" : 20,
      "name" : "COUNTRY",
      "nullable" : true,
      "oldName" : "COUNTRY",
      "partOfAnyRelation" : false,
      "partOfForeignKey" : false,
      "partOfPrimaryKey" : false,
      "partOfUniqueKey" : false,
      "precision" : 19,
      "primaryKey" : false,
      "scale" : 0,
      "sqlType" : "string",
      "unique" : false
    }, {
      "columnValue" : {
        "type" : "user-defined",
        "insertable" : true,
        "updatable" : true,
        "defaultValue" : ""
      },
      "fieldName" : "city",
      "foreignKey" : false,
      "generatorType" : "assigned",
      "generatorValue" : null,
      "javaType" : "string",
      "length" : 255,
      "name" : "CITY",
      "nullable" : true,
      "oldName" : "CITY",
      "partOfAnyRelation" : false,
      "partOfForeignKey" : false,
      "partOfPrimaryKey" : false,
      "partOfUniqueKey" : false,
      "precision" : 19,
      "primaryKey" : false,
      "scale" : 0,
      "sqlType" : "string",
      "unique" : false
    } ],
    "constraints" : [ ],
    "entityName" : "Destinations",
    "fullyQualifiedName" : "com.travel_advisor.travel_advisor_db.Destinations",
    "name" : "DESTINATIONS",
    "oldName" : "DESTINATIONS",
    "primaryKey" : {
      "columns" : [ "AIRPORT_CODE" ],
      "composite" : false,
      "generator" : {
        "generatorType" : "assigned",
        "generatorValue" : null
      },
      "name" : "PRIMARY",
      "virtual" : false
    },
    "relations" : [ {
      "cardinality" : "OneToMany",
      "columnsUniqueKey" : false,
      "composite" : false,
      "fieldName" : "requestsesForTo",
      "mappings" : [ {
        "sourceColumn" : "AIRPORT_CODE",
        "targetColumn" : "TO"
      } ],
      "name" : "FK_REQUEST_TO_DESTINATIOvRFwU",
      "primary" : false,
      "selfRelation" : false,
      "sourceTable" : "DESTINATIONS",
      "targetColumnsUniqueKey" : false,
      "targetTable" : "REQUESTS",
      "virtual" : false
    }, {
      "cardinality" : "OneToMany",
      "columnsUniqueKey" : false,
      "composite" : false,
      "fieldName" : "requestsesForFrom",
      "mappings" : [ {
        "sourceColumn" : "AIRPORT_CODE",
        "targetColumn" : "FROM"
      } ],
      "name" : "FK_REQUEST_TO_DESTINATIOGSlKy",
      "primary" : false,
      "selfRelation" : false,
      "sourceTable" : "DESTINATIONS",
      "targetColumnsUniqueKey" : false,
      "targetTable" : "REQUESTS",
      "virtual" : false
    } ],
    "schema" : null,
    "type" : "TABLE"
  } ]
}