{
  "approvedTripT" : {
    "_id" : "wm-approvedTripT-wm.Variable-1474959584966",
    "name" : "approvedTripT",
    "owner" : "Page",
    "category" : "wm.Variable",
    "dataBinding" : [ ],
    "dataSet" : {
      "dataValue" : ""
    },
    "type" : "string",
    "isList" : false,
    "saveInPhonegap" : false
  },
  "getApprovedRequests" : {
    "_id" : "wm-getApprovedRequests-wm.ServiceVariable-1468823830087",
    "name" : "getApprovedRequests",
    "owner" : "Page",
    "category" : "wm.ServiceVariable",
    "dataBinding" : [ ],
    "type" : "TRAVEL_ADVISOR_DBgetApprovedRequestsrtnType",
    "service" : "TRAVEL_ADVISOR_DB",
    "operation" : "executeGetApprovedRequests",
    "operationId" : "QueryExecutionController_executeGetApprovedRequests",
    "operationType" : "get",
    "serviceType" : "DataService",
    "dataSet" : [ ],
    "isList" : true,
    "maxResults" : 1,
    "designMaxResults" : 1,
    "onSuccess" : "getApprovedRequestsonSuccess($event, $scope)",
    "startUpdate" : true,
    "autoUpdate" : false,
    "inFlightBehavior" : "executeLast",
    "transformationRequired" : false,
    "saveInPhonegap" : false,
    "controller" : "QueryExecution"
  },
  "getLoggedInUserObject" : {
    "_id" : "wm-getLoggedInUserObject-wm.ServiceVariable-1468912196640",
    "name" : "getLoggedInUserObject",
    "owner" : "Page",
    "category" : "wm.ServiceVariable",
    "dataBinding" : [ {
      "target" : "id",
      "value" : "bind:Variables.loggedInUser.dataSet.id | toNumber",
      "type" : "integer"
    } ],
    "type" : "com.travel_advisor.travel_advisor_db.Employee",
    "service" : "TRAVEL_ADVISOR_DB",
    "operation" : "getEmployee",
    "operationId" : "EmployeeController_getEmployee",
    "operationType" : "get",
    "serviceType" : "DataService",
    "dataSet" : [ ],
    "isList" : false,
    "maxResults" : 20,
    "designMaxResults" : 10,
    "onSuccess" : "getLoggedInUserObjectonSuccess($event, $scope)",
    "startUpdate" : false,
    "autoUpdate" : false,
    "inFlightBehavior" : "executeLast",
    "transformationRequired" : false,
    "saveInPhonegap" : false,
    "controller" : "Employee"
  }
}